…
3.  The next few lines of code create a plot that shows the number of
    verses in each book of the Church of Jesus Christ of Latter-Day
    Saints scriptures.

``` r
lds_scriptures %>%
  group_by(volume_title, book_title) %>%
  summarise(total_verses = n()) %>%
  arrange(desc(total_verses))
```

    ## # A tibble: 87 × 3
    ## # Groups:   volume_title [5]
    ##    volume_title           book_title             total_verses
    ##    <chr>                  <chr>                         <int>
    ##  1 Doctrine and Covenants Doctrine and Covenants         3654
    ##  2 Old Testament          Psalms                         2461
    ##  3 Book of Mormon         Alma                           1975
    ##  4 Old Testament          Genesis                        1533
    ##  5 Old Testament          Jeremiah                       1364
    ##  6 Old Testament          Isaiah                         1292
    ##  7 Old Testament          Numbers                        1288
    ##  8 Old Testament          Ezekiel                        1273
    ##  9 Old Testament          Exodus                         1213
    ## 10 New Testament          Luke                           1151
    ## # ℹ 77 more rows
…
nrc_joy <- get_sentiments("nrc") %>% 
  filter(sentiment == "joy")

tidy_scriptures %>%
  inner_join(nrc_joy) %>%
  count(word, sort = TRUE)
```

    ## # A tibble: 328 × 2
    ##    word        n
    ##    <chr>   <int>
    ##  1 god      6878
    ##  2 good     1070
    ##  3 church    714
    ##  4 glory     675
    ##  5 art       660
    ##  6 faith     625
    ##  7 peace     585
    ##  8 found     530
    ##  9 blessed   529
    ## 10 save      490
    ## # ℹ 318 more rows
…
